{
  "family": "MyTaskDef",
  "containerDefinitions": [
    {
      "name": "MyTaskDef",
      "image": "480189430442.dkr.ecr.ap-southeast-2.amazonaws.com/temperature:latest",
      "cpu": 0,
      "memory": 256,
      "portMappings": [
        {
          "hostPort": 8080,
          "protocol": "tcp",
          "containerPort": 8080
        }
      ],
      "environment": [
        {
          "name": "spring.profiles.active",
          "value": "PRD"
        }
      ],
      "logConfiguration": {
        "logDriver": "awslogs",
        "options": {
          "awslogs-create-group": "true",
          "awslogs-group": "/ecs/MyTaskDef",
          "awslogs-region": "ap-southeast-2",
          "awslogs-stream-prefix": "ecs"
        }
      }
    }
  ]
}
